…
    countries = read_sf("data/countries/countries.shp")

We can then print the metadata about this vector layer by referring to
the `countries` object.

    countries

    ## Simple feature collection with 52 features and 168 fields
    ## Geometry type: MULTIPOLYGON
    ## Dimension:     XY
    ## Bounding box:  xmin: -17.53604 ymin: -34.82195 xmax: 51.41704 ymax: 37.3452
    ## Geodetic CRS:  WGS 84
    ## # A tibble: 52 × 169
    ##    featurecla      scalerank LABELRANK SOVEREIGNT   SOV_A3 ADM0_DIF LEVEL TYPE  TLC   ADMIN
    ##    <chr>               <int>     <int> <chr>        <chr>     <int> <int> <chr> <chr> <chr>
    ##  1 Admin-0 country         0         2 Ethiopia     ETH           0     2 Sove… 1     Ethi…
    ##  2 Admin-0 country         0         3 South Sudan  SDS           0     2 Sove… 1     Sout…
    ##  3 Admin-0 country         0         6 Somalia      SOM           0     2 Sove… 1     Soma…
    ##  4 Admin-0 country         0         2 Kenya        KEN           0     2 Sove… 1     Kenya
    ##  5 Admin-0 country         0         6 Malawi       MWI           0     2 Sove… 1     Mala…
    ##  6 Admin-0 country         0         3 United Repu… TZA           0     2 Sove… 1     Unit…
    ##  7 Admin-0 country         0         5 Somaliland   SOL           0     2 Sove… 1     Soma…
    ##  8 Admin-0 country         0         3 Morocco      MAR           0     2 Sove… 1     Moro…
    ##  9 Admin-0 country         0         7 Western Sah… SAH           0     2 Inde… 1     West…
    ## 10 Admin-0 country         0         4 Republic of… COG           0     2 Sove… 1     Repu…
    ## # ℹ 42 more rows
    ## # ℹ 159 more variables: ADM0_A3 <chr>, GEOU_DIF <int>, GEOUNIT <chr>, GU_A3 <chr>,
    ## #   SU_DIF <int>, SUBUNIT <chr>, SU_A3 <chr>, BRK_DIFF <int>, NAME <chr>, NAME_LONG <chr>,
    ## #   BRK_A3 <chr>, BRK_NAME <chr>, BRK_GROUP <chr>, ABBREV <chr>, POSTAL <chr>,
    ## #   FORMAL_EN <chr>, FORMAL_FR <chr>, NAME_CIAWF <chr>, NOTE_ADM0 <chr>, NOTE_BRK <chr>,
    ## #   NAME_SORT <chr>, NAME_ALT <chr>, MAPCOLOR7 <int>, MAPCOLOR8 <int>, MAPCOLOR9 <int>,
    ## #   MAPCOLOR13 <int>, POP_EST <dbl>, POP_RANK <int>, POP_YEAR <int>, GDP_MD <int>, …
…
    rivers = read_sf("data/rivers.gpkg", layer = "rivers")

We can also display metadata as in the previous example.

    rivers

    ## Simple feature collection with 228 features and 38 fields
    ## Geometry type: MULTILINESTRING
    ## Dimension:     XY
    ## Bounding box:  xmin: -16.54233 ymin: -34.34378 xmax: 49.46094 ymax: 35.12311
    ## Geodetic CRS:  WGS 84
    ## # A tibble: 228 × 39
    ##    dissolve   scalerank featurecla name  name_alt rivernum note  min_zoom name_en min_label
    ##    <chr>          <int> <chr>      <chr> <chr>       <int> <chr>    <dbl> <chr>       <dbl>
    ##  1 975River           9 River      <NA>  <NA>          975 <NA>       7.1 <NA>          8.1
    ##  2 976River           9 River      Rung… <NA>          976 <NA>       7.1 Rungwa        8.1
    ##  3 977River           9 River      Ligo… <NA>          977 <NA>       7.1 Ligonha       8.1
    ##  4 978River           9 River      Dong… <NA>          978 <NA>       7.1 Dongwe        8.1
    ##  5 979River           9 River      Cuito <NA>          979 <NA>       7.1 Cuito         8.1
    ##  6 980Lake C…         9 Lake Cent… <NA>  <NA>          980 <NA>       7.1 <NA>          8.1
    ##  7 980River           9 River      <NA>  <NA>          980 <NA>       7.1 <NA>          8.1
    ##  8 981River           9 River      Bagoé <NA>          981 <NA>       7.1 Bagoé         8.1
    ##  9 982River           9 River      Hade… <NA>          982 <NA>       7.1 Hadejia       8.1
    ## 10 983River           9 River      Sous  <NA>          983 <NA>       7.1 Sous          8.1
    ## # ℹ 218 more rows
    ## # ℹ 29 more variables: ne_id <dbl>, label <chr>, wikidataid <chr>, name_ar <chr>,
    ## #   name_bn <chr>, name_de <chr>, name_es <chr>, name_fr <chr>, name_el <chr>,
    ## #   name_hi <chr>, name_hu <chr>, name_id <chr>, name_it <chr>, name_ja <chr>,
    ## #   name_ko <chr>, name_nl <chr>, name_pl <chr>, name_pt <chr>, name_ru <chr>,
    ## #   name_sv <chr>, name_tr <chr>, name_vi <chr>, name_zh <chr>, name_fa <chr>,
    ## #   name_he <chr>, name_uk <chr>, name_ur <chr>, name_zht <chr>, …
…
## GeoJSON (.geojson)

The last GeoJSON file contains cities in the world. In this case, we
also use the `read_sf()` function to load this file.

    cities = read_sf("data/cities.geojson")
    cities

    ## Simple feature collection with 1287 features and 31 fields
    ## Geometry type: POINT
    ## Dimension:     XY
    ## Bounding box:  xmin: -17.47508 ymin: -34.52953 xmax: 51.12333 ymax: 37.29042
    ## Geodetic CRS:  WGS 84
    ## # A tibble: 1,287 × 32
    ##    scalerank natscale labelrank featurecla   name  namepar namealt nameascii adm0cap capalt
    ##        <int>    <int>     <int> <chr>        <chr> <chr>   <chr>   <chr>       <int>  <int>
    ##  1        10        1         8 Admin-1 cap… Bass… <NA>    <NA>    Bassar          0      0
    ##  2        10        1         8 Admin-1 cap… Soto… <NA>    <NA>    Sotouboua       0      0
    ##  3        10        1         7 Admin-1 cap… Mede… <NA>    <NA>    Medenine        0      0
    ##  4        10        1         7 Admin-1 cap… Kebi… <NA>    <NA>    Kebili          0      0
    ##  5        10        1         7 Admin-1 cap… Tata… <NA>    <NA>    Tataouine       0      0
    ##  6        10        1         7 Admin-1 cap… L'Ar… <NA>    <NA>    L'Ariana        0      0
    ##  7        10        1         7 Admin-1 cap… Jend… <NA>    <NA>    Jendouba        0      0
    ##  8        10        1         7 Admin-1 cap… Kass… <NA>    <NA>    Kasserine       0      0
    ##  9        10        1         7 Admin-1 cap… Sdid… <NA>    <NA>    Sdid Bou…       0      0
    ## 10        10        1         7 Admin-1 cap… Sili… <NA>    <NA>    Siliana         0      0
    ## # ℹ 1,277 more rows
    ## # ℹ 22 more variables: capin <chr>, worldcity <int>, megacity <int>, sov0name <chr>,
    ## #   sov_a3 <chr>, adm0name <chr>, adm0_a3 <chr>, adm1name <chr>, iso_a2 <chr>, note <chr>,
    ## #   latitude <dbl>, longitude <dbl>, pop_max <int>, pop_min <int>, pop_other <int>,
    ## #   rank_max <int>, rank_min <int>, meganame <chr>, ls_name <chr>, min_zoom <dbl>,
    ## #   ne_id <int>, geometry <POINT [°]>
…
1.  Single square brackets – a spatial object will be printed
2.  Double square brackets (alternatively a dollar sign) – only the text
    will be printed

<!-- -->

    cities["featurecla"]

    ## Simple feature collection with 1287 features and 1 field
    ## Geometry type: POINT
    ## Dimension:     XY
    ## Bounding box:  xmin: -17.47508 ymin: -34.52953 xmax: 51.12333 ymax: 37.29042
    ## Geodetic CRS:  WGS 84
    ## # A tibble: 1,287 × 2
    ##    featurecla                  geometry
    ##    <chr>                    <POINT [°]>
    ##  1 Admin-1 capital    (0.7890036 9.261)
    ##  2 Admin-1 capital (0.9849965 8.557002)
    ##  3 Admin-1 capital       (10.4167 33.4)
    ##  4 Admin-1 capital     (8.971003 33.69)
    ##  5 Admin-1 capital         (10.4667 33)
    ##  6 Admin-1 capital      (10.2 36.86667)
    ##  7 Admin-1 capital      (8.749999 36.5)
    ##  8 Admin-1 capital   (8.716698 35.2167)
    ##  9 Admin-1 capital   (9.500004 35.0167)
    ## 10 Admin-1 capital   (9.383302 36.0833)
    ## # ℹ 1,277 more rows
…
As a result of this operation, we got a logical vector with TRUE and
FALSE values (if the city is / is not the capital). Now let’s create a
new object named `capitals`, which will contain only capitals.

    # select only those cities that meet the above conditions
    capitals = cities[sel, ]
    capitals["name"]

    ## Simple feature collection with 60 features and 1 field
    ## Geometry type: POINT
    ## Dimension:     XY
    ## Bounding box:  xmin: -17.47508 ymin: -33.91807 xmax: 47.51468 ymax: 36.80278
    ## Geodetic CRS:  WGS 84
    ## # A tibble: 60 × 2
    ##    name                   geometry
    ##    <chr>               <POINT [°]>
    ##  1 Lobamba        (31.2 -26.46667)
    ##  2 Bir Lehlou (-9.652522 26.11917)
    ##  3 Kigali     (30.05859 -1.951644)
    ##  4 Mbabane    (31.13333 -26.31665)
    ##  5 Juba        (31.58003 4.829975)
    ##  6 Dodoma        (35.75 -6.183306)
    ##  7 Laayoune   (-13.20001 27.14998)
    ##  8 Djibouti      (43.148 11.59501)
    ##  9 Banjul      (-16.5917 13.45388)
    ## 10 Porto-Novo  (2.616626 6.483311)
    ## # ℹ 50 more rows
…
The `query` argument in the `read_sf()` function is used to pass SQL
queries. Let’s go back to the `countries` dataset and load only the
column with the names of countries (`NAME_LONG`).

    sql = "SELECT NAME_LONG FROM countries"
    f = "data/countries/countries.shp"
    read_sf(f, query = sql)

    ## Simple feature collection with 52 features and 1 field
    ## Geometry type: MULTIPOLYGON
    ## Dimension:     XY
    ## Bounding box:  xmin: -17.53604 ymin: -34.82195 xmax: 51.41704 ymax: 37.3452
    ## Geodetic CRS:  WGS 84
    ## # A tibble: 52 × 2
    ##    NAME_LONG                                                                       geometry
    ##    <chr>                                                                 <MULTIPOLYGON [°]>
    ##  1 Ethiopia              (((34.0707 9.454592, 34.06689 9.531176, 34.09821 9.67972, 34.2219…
    ##  2 South Sudan           (((35.92084 4.619332, 35.85654 4.619603, 35.78122 4.619922, 35.77…
    ##  3 Somalia               (((46.46696 6.538292, 46.48805 6.558645, 46.50841 6.578308, 46.55…
    ##  4 Kenya                 (((35.70585 4.619447, 35.70594 4.619962, 35.71152 4.661608, 35.73…
    ##  5 Malawi                (((34.96461 -11.57356, 34.65125 -11.57004, 34.61673 -11.57831, 34…
    ##  6 Tanzania              (((32.92086 -9.4079, 32.90546 -9.398185, 32.83074 -9.370176, 32.7…
    ##  7 Somaliland            (((48.93911 11.24913, 48.93911 11.13674, 48.93911 11.02437, 48.93…
    ##  8 Morocco               (((-8.817035 27.66146, -8.818449 27.6594, -8.81292 27.61335, -8.7…
    ##  9 Western Sahara        (((-8.817035 27.66146, -8.816537 27.66147, -8.752562 27.66144, -8…
    ## 10 Republic of the Congo (((18.62639 3.476869, 18.63455 3.449222, 18.64241 3.323829, 18.63…
    ## # ℹ 42 more rows
…
